simulate/forecast a single trajectory — forecast_sim • McMasterPandemic
…
#> 51  9.863825e-04 135.1261
#> 52  7.710140e-04 135.1269
#> 53  7.390379e-04 135.1277
#> 54  5.588850e-04 135.1282
#> 55  5.563063e-04 135.1288
#> 56  4.022806e-04 135.1292
#> 57  4.212938e-04 135.1296
#> 58  2.866826e-04 135.1299
#> 59  3.215237e-04 135.1302
#> 60  2.013687e-04 135.1304
#> 61  2.477816e-04 135.1307
#> 62  1.384203e-04 135.1308
#> 63  1.932624e-04 135.1310
#> 64  9.198911e-05 135.1311
#> # A tibble: 1,722 x 3
#>    date       var    value
#>    <date>     <chr>  <dbl>
#>  1 2020-01-30 S     999946
#>  2 2020-01-30 E         23
#>  3 2020-01-30 I         30
#>  4 2020-01-30 H          1
#>  5 2020-01-30 ICU        0
#>  6 2020-01-30 R          0
#>  7 2020-01-30 hosp      NA
#>  8 2020-01-30 X          0
#>  9 2020-01-30 death     NA
#> 10 2020-01-30 D          0
#> # ... with 1,712 more rows
…
